…
# pbp is scraped correctly

    Code
      scrape_pbp(6053773)
    Output
      # A tibble: 418 x 17
         periodN~1 perio~2 score time  visit~3 homeT~4 game_id id_home id_vi~5 short~6
         <chr>     <chr>   <chr> <chr> <chr>   <chr>     <dbl> <chr>   <chr>   <chr>  
       1 1         1st Ha~ ""    19:49 ""      "Layup~ 6053773 1782    1143    Duke   
       2 1         1st Ha~ ""    19:47 "LOU D~ ""      6053773 1782    1143    Duke   
       3 1         1st Ha~ "2-0" 19:39 "Layup~ ""      6053773 1782    1143    Duke   
       4 1         1st Ha~ ""    19:39 "LOU A~ ""      6053773 1782    1143    Duke   
       5 1         1st Ha~ ""    19:19 ""      "DU Tu~ 6053773 1782    1143    Duke   
       6 1         1st Ha~ ""    19:19 "LOU S~ ""      6053773 1782    1143    Duke   
       7 1         1st Ha~ ""    19:03 "3 Poi~ ""      6053773 1782    1143    Duke   
       8 1         1st Ha~ ""    19:03 ""      "DU Bl~ 6053773 1782    1143    Duke   
       9 1         1st Ha~ ""    18:59 ""      "DU De~ 6053773 1782    1143    Duke   
      10 1         1st Ha~ ""    18:46 "Foul ~ ""      6053773 1782    1143    Duke   
      # ... with 408 more rows, 7 more variables: shortName_visitor <chr>,
      #   seoName_home <chr>, seoName_visitor <chr>, sixCharAbbr_home <chr>,
      #   sixCharAbbr_visitor <chr>, nickName_home <chr>, nickName_visitor <chr>, and
      #   abbreviated variable names 1: periodNumber, 2: periodDisplay,
      #   3: visitorText, 4: homeText, 5: id_visitor, 6: shortName_home

---

    Code
      scrape_pbp(6068979)
    Output
      # A tibble: 461 x 17
         periodN~1 perio~2 score time  visit~3 homeT~4 game_id id_home id_vi~5 short~6
         <chr>     <chr>   <chr> <chr> <chr>   <chr>     <dbl> <chr>   <chr>   <chr>  
       1 1         1st Qu~ ""    09:37 "3 Poi~ ""      6068979 2512    2288    Michig~
       2 1         1st Qu~ ""    09:34 ""      "Mich ~ 6068979 2512    2288    Michig~
       3 1         1st Qu~ ""    09:11 ""      "Jumpe~ 6068979 2512    2288    Michig~
       4 1         1st Qu~ ""    09:09 "OSU D~ ""      6068979 2512    2288    Michig~
       5 1         1st Qu~ ""    09:02 "OSU T~ ""      6068979 2512    2288    Michig~
       6 1         1st Qu~ "0-3" 08:45 ""      "3 Poi~ 6068979 2512    2288    Michig~
       7 1         1st Qu~ ""    08:45 ""      "Mich ~ 6068979 2512    2288    Michig~
       8 1         1st Qu~ ""    08:34 "OSU T~ ""      6068979 2512    2288    Michig~
       9 1         1st Qu~ ""    08:34 ""      "Mich ~ 6068979 2512    2288    Michig~
      10 1         1st Qu~ "0-5" 08:30 ""      "Jumpe~ 6068979 2512    2288    Michig~
      # ... with 451 more rows, 7 more variables: shortName_visitor <chr>,
      #   seoName_home <chr>, seoName_visitor <chr>, sixCharAbbr_home <chr>,
      #   sixCharAbbr_visitor <chr>, nickName_home <chr>, nickName_visitor <chr>, and
      #   abbreviated variable names 1: periodNumber, 2: periodDisplay,
      #   3: visitorText, 4: homeText, 5: id_visitor, 6: shortName_home

---

    Code
      scrape_pbp(3170318)
    Output
      # A tibble: 380 x 17
         periodN~1 perio~2 score time  visit~3 homeT~4 game_id id_home id_vi~5 short~6
         <chr>     <chr>   <chr> <chr> <chr>   <chr>     <dbl> <chr>   <chr>   <chr>  
       1 1         1st Ha~ ""    20:00 "Trey ~ ""      3170318 2640    1628    San Di~
       2 1         1st Ha~ ""    19:35 "Jorda~ ""      3170318 2640    1628    San Di~
       3 1         1st Ha~ ""    19:33 "Tre'S~ ""      3170318 2640    1628    San Di~
       4 1         1st Ha~ ""    19:25 "Natha~ ""      3170318 2640    1628    San Di~
       5 1         1st Ha~ ""    19:23 ""      "Devin~ 3170318 2640    1628    San Di~
       6 1         1st Ha~ ""    18:59 ""      "Devin~ 3170318 2640    1628    San Di~
       7 1         1st Ha~ ""    18:57 "Tre'S~ ""      3170318 2640    1628    San Di~
       8 1         1st Ha~ ""    18:52 "Caleb~ ""      3170318 2640    1628    San Di~
       9 1         1st Ha~ ""    18:50 ""      "Jerem~ 3170318 2640    1628    San Di~
      10 1         1st Ha~ "0-2" 18:39 ""      "Jerem~ 3170318 2640    1628    San Di~
      # ... with 370 more rows, 7 more variables: shortName_visitor <chr>,
      #   seoName_home <chr>, seoName_visitor <chr>, sixCharAbbr_home <chr>,
      #   sixCharAbbr_visitor <chr>, nickName_home <chr>, nickName_visitor <chr>, and
      #   abbreviated variable names 1: periodNumber, 2: periodDisplay,
      #   3: visitorText, 4: homeText, 5: id_visitor, 6: shortName_home
